                                        
                                                                        RESUME

       DR.NEHA VORA

    - MBBS
    -FELLOWSHIP IN INTENSIVE CARE MEDICINE WITH ACLS AND BLS IN MAY 2012 AT INDRAPRASTHA 
     APOLLO HOPSITAL , DELHI
    -ACLS WITH BLS IN APRIL 2015 AT STERLING HOPSITAL , VADODRA, GUJARAT

      
     EXPERIENCE :total 12 years 

    1. SENIOR MEDICAL OFFICER AT STERLING HOSPITAL, VADODRA FROM JULY TO SEPTEMBER
       2017
     2. SENIOR MEDICAL OFFICER AT BHAILAL AMIN HOSPITAL FROM NOVEMBER 2017 TO NOVEMBER 
        2019
     3. RESIDENT MEDICALL OFFICER AT INDRAPRASTHA APOLLO HOSPITAL , NEW DELHI IN                  DEPARTMENT OF INTERNAL MEDICINE AND ICU FROM OCT 2011 TO MAY 2014.
     4.MEDICAL OFFICER AT STERLING HOSP.,VADODRA FROM JUNE 2008 TO OCT 2011.
     5.MEDICAL OFFICER  AT LILAVATI HOSPITAL, MUMBAI FROM AUGUST 2006 TO SEPT 2007.
     6.MEDICAL OFFICER AT SUSHILA TIWARI HOSP., HALDWANI FROM 2001 TO 2002
     7. MEDICAL OFFICER AT MANIPAL TEACHING HOSPITAL , POKHARA IN 2001.

     



   